hacky-easter-2022/back_to_the_roots_COMPLETE/simutron-1.0.1-SR1-Linux-x86_64/bin/3-axes_CNC_machine.vcd
$timescale 1ns $end
$scope module logic $end
$var wire 1 ! SpindleOn $end
$var wire 1 " LED1 $end
$var wire 1 # RampClock $end
$var wire 1 $ Z_MIN_Hit $end
$var wire 1 % Z_MAX_Hit $end
$var wire 1 & Phase2 $end
$var wire 1 ' Phase1 $end
$var wire 1 ( Phase0 $end
$upscope $end
$enddefinitions $end
$dumpvars
x!
x"
x#
x$
x%
x&
x'
x(
$end
#60439625
0"
#121639937
1"
#182838062
0"
#244042937
1"
#305238687
0"
#366438437
1"
#427636562
0"
#488845562
1"
#550042875
0"
#611237000
1"
#672438187
0"
#733642875
1"
#794844375
0"
#856038500
1"
#917240625
0"
#978437125
1"
#1039644062
0"
#1084424687
1#
#1084566250
0#
#1099024750
1#
#1099056187
0'
#1099165562
0#
#1110425062
1#
#1110566250
0#
#1120124687
1#
#1120156125
1(
#1120265875
0#
#1128624812
1#
#1128656250
1&
1'
#1128765625
0#
#1136324750
1#
#1136356187
0'
#1136465937
0#
#1143424687
1#
#1143456500
0(
#1143566250
0#
#1150025500
1#
#1150057687
1(
#1150167062
0#
#1156224687
1#
#1156256125
0&
1'
#1156365875
0#
#1162125625
1#
#1162157062
0'
#1162266812
0#
#1167768687
1#
#1167800125
0(
#1167909500
0#
#1173268750
1#
#1173300187
1(
#1173409562
0#
#1178524687
1#
#1178556125
1&
1'
#1178665500
0#
#1183568687
1#
#1183600125
0'
#1183709500
0#
#1188469000
1#
#1188500812
0(
#1188610187
0#
#1193124687
1#
#1193156875
1(
#1193266250
0#
#1197625250
1#
#1197656687
0&
1'
#1197766062
0#
#1202024875
1#
#1202056312
0'
#1202165687
0#
#1206324687
1#
#1206356125
0(
#1206465500
0#
#1210524687
1#
#1210556125
1(
#1210665500
0#
#1214624687
1#
#1214656125
1&
1'
#1214765500
0#
#1218624750
1#
#1218656187
0'
#1218765562
0#
#1222524687
1#
#1222556500
0(
#1222665875
0#
#1226368687
1#
#1226400875
1(
#1226510250
0#
#1230124687
1#
#1230156125
0&
1'
#1230265500
0#
#1233724687
1#
#1233756125
0'
#1233865125
0#
#1237324687
1#
#1237356125
0(
#1237465500
0#
#1240868687
1#
#1240900125
1(
#1241009125
0#
#1244425312
1#
#1244456750
1&
1'
#1244566125
0#
#1247824750
1#
#1247856187
0'
#1247965562
0#
#1251168750
1#
#1251200562
0(
#1251309562
0#
#1254525250
1#
#1254557437
1(
#1254666812
0#
#1257724750
1#
#1257756187
0&
1'
#1257865187
0#
#1260924687
1#
#1260956125
0'
#1261065500
0#
#1264024750
1#
#1264056187
0(
#1264165187
0#
#1267125625
1#
#1267157062
1(
#1267266062
0#
#1270225437
1#
#1270256875
1&
1'
#1270366250
0#
#1273225687
1#
#1273257125
0'
#1273366125
0#
#1276225562
1#
#1276257375
0(
#1276366750
0#
#1279130625
1#
#1279162812
1(
#1279271812
0#
#1282025625
1#
#1282057062
0&
1'
#1282166062
0#
#1284924750
1#
#1284956187
0'
#1285065562
0#
#1287724687
1#
#1287756125
0(
#1287865125
0#
#1290524937
1#
#1290556375
1(
#1290665375
0#
#1293324687
1#
#1293356125
1&
1'
#1293465125
0#
#1296124687
1#
#1296156125
0'
#1296265500
0#
#1298824687
1#
#1298856500
0(
#1298965500
0#
#1301524687
1#
#1301556875
1(
#1301665875
0#
#1304225375
1#
#1304256812
0&
1'
#1304366187
0#
#1306824750
1#
#1306856187
0'
#1306965187
0#
#1309468750
1#
#1309500187
0(
#1309609187
0#
#1312124687
1#
#1312156125
1(
#1312265125
0#
#1314725500
1#
#1314756937
1&
1'
#1314866312
0#
#1317224687
1#
#1317256125
0'
#1317365125
0#
#1319768750
1#
#1319800562
0(
#1319909562
0#
#1322324750
1#
#1322356937
1(
#1322465937
0#
#1324824687
1#
#1324856125
0&
1'
#1324965125
0#
#1327324875
1#
#1327356312
0'
#1327465687
0#
#1329724687
1#
#1329756125
0(
#1329865125
0#
#1332124687
1#
#1332156125
1(
#1332265125
0#
#1334524687
1#
#1334556125
1&
1'
#1334665125
0#
#1336924937
1#
#1336956375
0'
#1337065375
0#
#1339324687
1#
#1339356500
0(
#1339465875
0#
#1341625687
1#
#1341657875
1(
#1341766875
0#
#1343924687
1#
#1343956125
0&
1'
#1344065125
0#
#1346268687
1#
#1346300125
0'
#1346409125
0#
#1348624687
1#
#1348656125
0(
#1348765125
0#
#1350924750
1#
#1350956187
1(
#1351065187
0#
#1353224687
1#
#1353256125
1&
1'
#1353365500
0#
#1355424687
1#
#1355456125
0'
#1355565125
0#
#1357624687
1#
#1357656500
0(
#1357765500
0#
#1359825437
1#
#1359857625
1(
#1359966625
0#
#1362024687
1#
#1362056125
0&
1'
#1362165125
0#
#1364224687
1#
#1364256125
0'
#1364365125
0#
#1366424812
1#
#1366456250
0(
#1366565250
0#
#1368625562
1#
#1368657000
1(
#1368766375
0#
#1370724687
1#
#1370756125
1&
1'
#1370865125
0#
#1372824687
1#
#1372856125
0'
#1372965125
0#
#1374924750
1#
#1374956562
0(
#1375065562
0#
#1377024750
1#
#1377056937
1(
#1377165937
0#
#1379124750
1#
#1379156187
0&
1'
#1379265187
0#
#1381224812
1#
#1381256250
0'
#1381365250
0#
#1383324687
1#
#1383356125
0(
#1383465125
0#
#1385424875
1#
#1385456312
1(
#1385565687
0#
#1387425187
1#
#1387456625
1&
1'
#1387565625
0#
#1389424687
1#
#1389456125
0'
#1389565125
0#
#1391425062
1#
#1391456875
0(
#1391565875
0#
#1393424687
1#
#1393456875
1(
#1393565875
0#
#1395424687
1#
#1395456125
0&
1'
#1395565125
0#
#1397424687
1#
#1397456125
0'
#1397565125
0#
#1399424937
1#
#1399456375
0(
#1399565375
0#
#1401424750
1#
#1401456187
1(
#1401565187
0#
#1403424687
1#
#1403456125
1&
1'
#1403565125
0#
#1405424687
1#
#1405456125
0'
#1405565500
0#
#1407324687
1#
#1407356500
0(
#1407465500
0#
#1409224687
1#
#1409256875
1(
#1409365875
0#
#1411168687
1#
#1411200125
0&
1'
#1411309125
0#
#1413124750
1#
#1413156187
0'
#1413265187
0#
#1415024687
1#
#1415056125
0(
#1415165125
0#
#1416924750
1#
#1416956187
1(
#1417066937
0#
#1418824687
1#
#1418856125
1&
1'
#1418965625
0#
#1420724750
1#
#1420756187
0'
#1420865687
0#
#1422668750
1#
#1422700562
0(
#1422810062
0#
#1424624750
1#
#1424656937
1(
#1424766812
0#
#1426624687
1#
#1426656125
0&
1'
#1426765625
0#
#1428624687
1#
#1428656125
0'
#1428765625
0#
#1430625500
1#
#1430656937
0(
#1430766437
0#
#1432624687
1#
#1432656125
1(
#1432765625
0#
#1434624875
1#
#1434656312
1&
1'
#1434765812
0#
#1436624687
1#
#1436656125
0'
#1436765625
0#
#1438624687
1#
#1438656500
0(
#1438766000
0#
#1440624875
1#
#1440657062
1(
#1440766937
0#
#1442724687
1#
#1442756125
0&
1'
#1442865625
0#
#1444824687
1#
#1444856125
0'
#1444965625
0#
#1446924687
1#
#1446956125
0(
#1447065625
0#
#1449024687
1#
#1449056125
1(
#1449165625
0#
#1451124687
1#
#1451156125
1&
1'
#1451265625
0#
#1453224687
1#
#1453256125
0'
#1453365625
0#
#1455324687
1#
#1455356500
0(
#1455466000
0#
#1457424687
1#
#1457456875
1(
#1457566750
0#
#1459624687
1#
#1459656125
0&
1'
#1459765625
0#
#1461824875
1#
#1461856312
0'
#1461965812
0#
#1464024687
1#
#1464056125
0(
#1464165625
0#
#1466224750
1#
#1466256187
1(
#1466365687
0#
#1468424750
1#
#1468456187
1&
1'
#1468565687
0#
#1470624687
1#
#1470656125
0'
#1470765625
0#
#1472824875
1#
#1472856687
0(
#1472966562
0#
#1475124687
1#
#1475156875
1(
#1475266375
0#
#1477424687
1#
#1477456125
0&
1'
#1477565625
0#
#1479768687
1#
#1479800125
0'
#1479909625
0#
#1482124812
1#
#1482156250
0(
#1482265750
0#
#1484424812
1#
#1484456250
1(
#1484565750
0#
#1486724687
1#
#1486756125
1&
1'
#1486866000
0#
#1489124687
1#
#1489156125
0'
#1489265625
0#
#1491524687
1#
#1491556500
0(
#1491666000
0#
#1493925375
1#
#1493957562
1(
#1494067062
0#
#1496324812
1#
#1496356250
0&
1'
#1496465750
0#
#1498724687
1#
#1498756125
0'
#1498866000
0#
#1501225562
1#
#1501257000
0(
#1501366500
0#
#1503725625
1#
#1503757062
1(
#1503866562
0#
#1506268875
1#
#1506300312
1&
1'
#1506409812
0#
#1508824687
1#
#1508856125
0'
#1508966000
0#
#1511424687
1#
#1511456500
0(
#1511566000
0#
#1514024750
1#
#1514056937
1(
#1514166437
0#
#1516624687
1#
#1516656125
0&
1'
#1516765625
0#
#1519225250
1#
#1519256687
0'
#1519366187
0#
#1521824750
1#
#1521856187
0(
#1521966062
0#
#1524524812
1#
#1524556250
1(
#1524665750
0#
#1527224687
1#
#1527256125
1&
1'
#1527365625
0#
#1529925562
1#
#1529957000
0'
#1530066875
0#
#1532769375
1#
#1532801187
0(
#1532910687
0#
#1535624750
1#
#1535656937
1(
#1535766437
0#
#1538424687
1#
#1538456125
0&
1'
#1538565625
0#
#1541268687
1#
#1541300125
0'
#1541410000
0#
#1544225000
1#
#1544256437
0(
#1544365937
0#
#1547124687
1#
#1547156125
1(
#1547265625
0#
#1550024750
1#
#1550056187
1&
1'
#1550166062
0#
#1553024687
1#
#1553056125
0'
#1553165625
0#
#1556024687
1#
#1556056500
0(
#1556166375
0#
#1559124687
1#
#1559156875
1(
#1559266375
0#
#1562224687
1#
#1562256125
0&
1'
#1562365625
0#
#1565368750
1#
#1565400187
0'
#1565510062
0#
#1568624750
1#
#1568656187
0(
#1568765687
0#
#1571825625
1#
#1571857062
1(
#1571966937
0#
#1575124687
1#
#1575156125
1&
1'
#1575265625
0#
#1578424687
1#
#1578456125
0'
#1578566000
0#
#1581824687
1#
#1581856500
0(
#1581966000
0#
#1585268687
1#
#1585300875
1(
#1585410750
0#
#1588825437
1#
#1588856875
0&
1'
#1588966375
0#
#1592324687
1#
#1592356125
0'
#1592466000
0#
#1595924750
1#
#1595956187
0(
#1596066062
0#
#1599624687
1#
#1599656125
1(
#1599765625
0#
#1603368750
1#
#1603400187
1&
1'
#1603510062
0#
#1607225500
1#
#1607256937
0'
#1607366812
0#
#1611124687
1#
#1611156500
0(
#1611266375
0#
#1615124687
1#
#1615156875
1(
#1615266750
0#
#1619224937
1#
#1619256375
0&
1'
#1619365875
0#
#1623324750
1#
#1623356187
0'
#1623466062
0#
#1627524687
1#
#1627556125
0(
#1627666000
0#
#1631824687
1#
#1631856125
1(
#1631966000
0#
#1636324687
1#
#1636356125
1&
1'
#1636466000
0#
#1640925125
1#
#1640956562
0'
#1641066437
0#
#1645624687
1#
#1645656500
0(
#1645766375
0#
#1650524687
1#
#1650556875
1(
#1650666750
0#
#1655525187
1#
#1655556625
0&
1'
#1655666500
0#
#1660724687
1#
#1660756125
0'
#1660866000
0#
#1666125125
1#
#1666156562
0(
#1666266437
0#
#1671724687
1#
#1671756125
1(
#1671866000
0#
#1677524812
1#
#1677556250
1&
1'
#1677666500
0#
#1683624875
1#
#1683656312
0'
#1683766562
0#
#1690024875
1#
#1690056687
0(
#1690166562
0#
#1696824687
1#
#1696856875
1(
#1696966750
0#
#1704025687
1#
#1704057125
0&
1'
#1704167375
0#
#1711824687
1#
#1711856125
0'
#1711966750
0#
#1720324750
1#
#1720356187
0(
#1720466437
0#
#1729724687
1#
#1729756125
1(
#1729866375
0#
#1740324687
1#
#1740356125
1&
1'
#1740466375
0#
#1752924687
1#
#1752956125
0'
#1753066375
0#
#1769124687
1#
#1769156500
0(
#1769267875
0#
#1796225437
1#
#1796257625
1(
#1796291375
0#
#1827469125
1"
#1888850125
0"
#1950058375
1"
#2011254937
0"
#2072449000
1"
#2133650875
0"
#2194850750
1"
#2256056750
0"
#2317249812
1"
#2378451312
0"
#2439650062
1"
#2500855187
0"
#2562049187
1"
#2623250687
0"
#2684450062
1"
#2745655437
0"
#2778432375
1'
#2809338187
1"
#2870544500
0"
#2931738562
1"
#2992940312
0"
#3054139437
1"
#3115344812
0"
