hacky-easter-2022/back_to_the_roots_COMPLETE/simutron-1.0.1-SR1-Linux-x86_64/bin/clock.vcd
$timescale 1ns $end
$scope module logic $end
$var wire 1 ! Q0 $end
$var wire 1 " Q1 $end
$var wire 1 # Q2 $end
$var wire 1 $ Q3 $end
$var wire 1 % Clock $end
$upscope $end
$enddefinitions $end
$dumpvars
x!
x"
x#
x$
x%
$end
#50000000
0%
#550000000
1%
#550001000
1!
#1050000000
0%
#1550000000
1%
#1550001000
0!
#1550002000
1"
#2050000000
0%
#2550000000
1%
#2550001000
1!
#3050000000
0%
#3550000000
1%
#3550001000
0!
#3550002000
0"
#3550003000
1#
#4050000000
0%
#4550000000
1%
#4550001000
1!
#5050000000
0%
#5550000000
1%
#5550001000
0!
#5550002000
1"
#6050000000
0%
#6550000000
1%
#6550001000
1!
#7050000000
0%
#7550000000
1%
#7550001000
0!
#7550002000
0"
#7550003000
0#
#7550004000
0$
#8050000000
0%
#8550000000
1%
#8550001000
1!
#9050000000
0%
#9550000000
1%
#9550001000
0!
#9550002000
1"
#10050000000
0%
#10550000000
1%
#10550001000
1!
#11050000000
0%
#11550000000
1%
#11550001000
0!
#11550002000
0"
#11550003000
1#
#12050000000
0%
#12550000000
1%
#12550001000
1!
#13050000000
0%
#13550000000
1%
#13550001000
0!
#13550002000
1"
#14050000000
0%
#14550000000
1%
#14550001000
1!
#15050000000
0%
#15550000000
1%
#15550001000
0!
#15550002000
0"
#15550003000
0#
#15550004000
1$
#16050000000
0%
#16550000000
1%
#16550001000
1!
#17050000000
0%
#17550000000
1%
#17550001000
0!
#17550002000
1"
#18050000000
0%
#18550000000
1%
#18550001000
1!
#19050000000
0%
#19550000000
1%
#19550001000
0!
#19550002000
0"
#19550003000
1#
#20050000000
0%
#20550000000
1%
#20550001000
1!
#21050000000
0%
#21550000000
1%
#21550001000
0!
#21550002000
1"
#22050000000
0%
#22550000000
1%
#22550001000
1!
#23050000000
0%
#23550000000
1%
#23550001000
0!
#23550002000
0"
#23550003000
0#
#23550004000
0$
#24050000000
0%
#24550000000
1%
#24550001000
1!
#25050000000
0%
#25550000000
1%
#25550001000
0!
#25550002000
1"
#26050000000
0%
#26550000000
1%
#26550001000
1!
#27050000000
0%
#27550000000
1%
#27550001000
0!
#27550002000
0"
#27550003000
1#
#28050000000
0%
#28550000000
1%
#28550001000
1!
#29050000000
0%
#29550000000
1%
#29550001000
0!
#29550002000
1"
#30050000000
0%
#30550000000
1%
#30550001000
1!
#31050000000
0%
#31550000000
1%
#31550001000
0!
#31550002000
0"
#31550003000
0#
#31550004000
1$
#32050000000
0%
#32550000000
1%
#32550001000
1!
#33050000000
0%
#33550000000
1%
#33550001000
0!
#33550002000
1"
#34050000000
0%
#34550000000
1%
#34550001000
1!
#35050000000
0%
#35550000000
1%
#35550001000
0!
#35550002000
0"
#35550003000
1#
#36050000000
0%
#36550000000
1%
#36550001000
1!
#37050000000
0%
#37550000000
1%
#37550001000
0!
#37550002000
1"
#38050000000
0%
#38550000000
1%
#38550001000
1!
#39050000000
0%
#39550000000
1%
#39550001000
0!
#39550002000
0"
#39550003000
0#
#39550004000
0$
#40050000000
0%
#40550000000
1%
#40550001000
1!
#41050000000
0%
#41550000000
1%
#41550001000
0!
#41550002000
1"
#42050000000
0%
#42550000000
1%
#42550001000
1!
#43050000000
0%
#43550000000
1%
#43550001000
0!
#43550002000
0"
#43550003000
1#
#44050000000
0%
#44550000000
1%
#44550001000
1!
#45050000000
0%
#45550000000
1%
#45550001000
0!
#45550002000
1"
#46050000000
0%
#46550000000
1%
#46550001000
1!
#47050000000
0%
#47550000000
1%
#47550001000
0!
#47550002000
0"
#47550003000
0#
#47550004000
1$
#48050000000
0%
#48550000000
1%
#48550001000
1!
